<?xml version="1.0" encoding="UTF-8" standalone="no"?>
<svg
   xmlns:dc="http://purl.org/dc/elements/1.1/"
   xmlns:cc="http://creativecommons.org/ns#"
   xmlns:rdf="http://www.w3.org/1999/02/22-rdf-syntax-ns#"
   xmlns:svg="http://www.w3.org/2000/svg"
   xmlns="http://www.w3.org/2000/svg"
   xmlns:sodipodi="http://sodipodi.sourceforge.net/DTD/sodipodi-0.dtd"
   xmlns:inkscape="http://www.inkscape.org/namespaces/inkscape"
   width="152.10001mm"
   height="128.10001mm"
   viewBox="0 0 152.10001 128.10001"
   version="1.1"
   id="svg8"
   inkscape:version="1.0.1 (3bc2e813f5, 2020-09-07)"
   sodipodi:docname="Backplate_forMike.svg">
  <defs
     id="defs2" />
  <sodipodi:namedview
     id="base"
     pagecolor="#ffffff"
     bordercolor="#666666"
     borderopacity="1.0"
     inkscape:pageopacity="0.0"
     inkscape:pageshadow="2"
     inkscape:zoom="1.4"
     inkscape:cx="308.90986"
     inkscape:cy="249.71095"
     inkscape:document-units="mm"
     inkscape:current-layer="layer1"
     inkscape:document-rotation="0"
     showgrid="false"
     inkscape:window-width="1920"
     inkscape:window-height="1001"
     inkscape:window-x="-9"
     inkscape:window-y="-9"
     inkscape:window-maximized="1"
     fit-margin-top="0"
     fit-margin-left="0"
     fit-margin-right="0"
     fit-margin-bottom="0"
     showguides="true" />
  <metadata
     id="metadata5">
    <rdf:RDF>
      <cc:Work
         rdf:about="">
        <dc:format>image/svg+xml</dc:format>
        <dc:type
           rdf:resource="http://purl.org/dc/dcmitype/StillImage" />
        <dc:title />
      </cc:Work>
    </rdf:RDF>
  </metadata>
  <g
     inkscape:label="Ebene 1"
     inkscape:groupmode="layer"
     id="layer1">
    <rect
       style="fill:#ffffff;stroke:#ff0000;stroke-width:0.1;stroke-linejoin:round;stroke-opacity:1"
       id="rect833"
       width="152.06"
       height="128.39999"
       x="0.050000001"
       y="0.050000001" />
    <circle
       style="fill:#ffffff;stroke:#ff0000;stroke-width:0.1;stroke-linejoin:round;stroke-opacity:1"
       id="path1013"
       cx="5.579998"
       cy="100.56252"
       r="1.5" />
    <circle
       style="fill:#ffffff;stroke:#ff0000;stroke-width:0.1;stroke-linejoin:round;stroke-opacity:1"
       id="path837"
       cx="25.579998"
       cy="21.558332"
       r="2" />
    <circle
       style="fill:#ffffff;stroke:#ff0000;stroke-width:0.1;stroke-linejoin:round;stroke-opacity:1"
       id="path837-7"
       cx="25.579998"
       cy="71.058334"
       r="2" />
    <circle
       style="fill:#ffffff;stroke:#ff0000;stroke-width:0.1;stroke-linejoin:round;stroke-opacity:1"
       id="path837-2"
       cx="76.079994"
       cy="21.558332"
       r="2" />
    <circle
       style="fill:#ffffff;stroke:#ff0000;stroke-width:0.1;stroke-linejoin:round;stroke-opacity:1"
       id="path837-7-0"
       cx="76.079994"
       cy="71.058334"
       r="2" />
    <circle
       style="fill:#ffffff;stroke:#ff0000;stroke-width:0.1;stroke-linejoin:round;stroke-opacity:1"
       id="path837-74"
       cx="126.57999"
       cy="21.558332"
       r="2" />
    <circle
       style="fill:#ffffff;stroke:#ff0000;stroke-width:0.1;stroke-linejoin:round;stroke-opacity:1"
       id="path837-7-1"
       cx="126.57999"
       cy="71.058334"
       r="2" />
    <rect
       style="fill:#ffffff;stroke:#ff0000;stroke-width:0.1;stroke-linejoin:round;stroke-opacity:1"
       id="rect854"
       width="32.400002"
       height="24.4"
       x="9.3799963"
       y="88.362518"
       rx="3"
       ry="3" />
    <circle
       style="fill:#ffffff;stroke:#ff0000;stroke-width:0.1;stroke-linejoin:round;stroke-opacity:1"
       id="path1013-2"
       cx="45.579998"
       cy="100.56252"
       r="1.5" />
    <rect
       style="fill:#ffffff;stroke:#ff0000;stroke-width:0.1;stroke-linejoin:round;stroke-opacity:1"
       id="rect854-7"
       width="32.400002"
       height="24.4"
       x="59.879997"
       y="88.362526"
       rx="3" />
    <circle
       style="fill:#ffffff;stroke:#ff0000;stroke-width:0.1;stroke-linejoin:round;stroke-opacity:1"
       id="path1013-6"
       cx="56.079998"
       cy="100.56253"
       r="1.5" />
    <circle
       style="fill:#ffffff;stroke:#ff0000;stroke-width:0.1;stroke-linejoin:round;stroke-opacity:1"
       id="path1013-2-4"
       cx="96.079994"
       cy="100.56253"
       r="1.5" />
    <rect
       style="fill:#ffffff;stroke:#ff0000;stroke-width:0.1;stroke-linejoin:round;stroke-opacity:1"
       id="rect854-2"
       width="32.400002"
       height="24.4"
       x="110.38"
       y="88.362526"
       rx="3"
       ry="3" />
    <circle
       style="fill:#ffffff;stroke:#ff0000;stroke-width:0.1;stroke-linejoin:round;stroke-opacity:1"
       id="path1013-61"
       cx="106.58"
       cy="100.56253"
       r="1.5" />
    <circle
       style="fill:#ffffff;stroke:#ff0000;stroke-width:0.1;stroke-linejoin:round;stroke-opacity:1"
       id="path1013-2-2"
       cx="146.58"
       cy="100.56253"
       r="1.5" />
    <circle
       style="fill:#ffffff;stroke:#ff0000;stroke-width:0.1;stroke-linejoin:round;stroke-opacity:1"
       id="path1163"
       cx="7.5"
       cy="125.45"
       r="1.25" />
    <circle
       style="fill:#ffffff;stroke:#ff0000;stroke-width:0.1;stroke-linejoin:round;stroke-opacity:1"
       id="path1163-7"
       cx="7.5"
       cy="3.05"
       r="1.25" />
    <circle
       style="fill:#ffffff;stroke:#ff0000;stroke-width:0.1;stroke-linejoin:round;stroke-opacity:1"
       id="path1163-70"
       cx="144.66"
       cy="125.45"
       r="1.25" />
    <circle
       style="fill:#ffffff;stroke:#ff0000;stroke-width:0.1;stroke-linejoin:round;stroke-opacity:1"
       id="path1163-7-9"
       cx="144.66"
       cy="3.05"
       r="1.25" />
  </g>
</svg>
